\relax 
\providecommand\hyper@newdestlabel[2]{}
\providecommand\BKM@entry[2]{}
\providecommand*{\memsetcounter}[2]{}
\providecommand\HyperFirstAtBeginDocument{\AtBeginDocument}
\HyperFirstAtBeginDocument{\ifx\hyper@anchor\@undefined
\global\let\oldcontentsline\contentsline
\gdef\contentsline#1#2#3#4{\oldcontentsline{#1}{#2}{#3}}
\global\let\oldnewlabel\newlabel
\gdef\newlabel#1#2{\newlabelxx{#1}#2}
\gdef\newlabelxx#1#2#3#4#5#6{\oldnewlabel{#1}{{#2}{#3}}}
\AtEndDocument{\ifx\hyper@anchor\@undefined
\let\contentsline\oldcontentsline
\let\newlabel\oldnewlabel
\fi}
\fi}
\global\let\hyper@last\relax 
\gdef\HyperFirstAtBeginDocument#1{#1}
\providecommand*\HyPL@Entry[1]{}
\catcode `"\active 
\BKM@entry{id=1,dest={73656374696F6E2E302E31},srcline={19}}{496E74726F64756374696F6E}
\BKM@entry{id=2,dest={73656374696F6E2E302E32},srcline={25}}{4D6F64656C6C696E67}
\HyPL@Entry{0<</S/D>>}
\@writefile{toc}{\changetocdepth  {4}}
\select@language{brazil}
\@writefile{toc}{\select@language{brazil}}
\@writefile{lof}{\select@language{brazil}}
\@writefile{lot}{\select@language{brazil}}
\@writefile{toc}{\contentsline {section}{\numberline {I}Introduction}{1}{section.0.1}}
\@writefile{toc}{\contentsline {section}{\numberline {II}Modelling}{1}{section.0.2}}
\newlabel{bureau}{{\M@TitleReference {6}{Modelling}}{2}{Modelling}{equation.0.2.6}{}}
\BKM@entry{id=3,dest={73656374696F6E2E302E33},srcline={101}}{54686520656D7069726963616C20617070726F616368}
\@writefile{toc}{\contentsline {section}{\numberline {III}The empirical approach}{3}{section.0.3}}
\BKM@entry{id=4,dest={73656374696F6E2E302E34},srcline={126}}{54686520656D7069726963616C2065766964656E6365}
\BKM@entry{id=5,dest={73656374696F6E2E302E35},srcline={135}}{436F6E636C7573696F6E}
\@writefile{toc}{\contentsline {section}{\numberline {IV}The empirical evidence}{4}{section.0.4}}
\@writefile{toc}{\contentsline {section}{\numberline {V}Conclusion}{4}{section.0.5}}
\memsetcounter{lastsheet}{4}
\memsetcounter{lastpage}{4}
